7

8 4
12
3 3
5 2
1 2
6 3
0 1
7 1
7 2
1 0
7 0
7 0
6 1
5 2
7 3

6 8
15
1 2
1 0
0 5
0 7
1 5
0 5
0 0
0 6
0 0
5 2
2 6
2 5
0 4
5 6
3 0
11 5

14 20
14
8 16
5 8
10 8
10 12
0 2
3 0
0 3
7 1
11 9
3 11
5 13
0 14
6 8
3 2
7 2

12 12
12
11 0
11 6
6 7
6 4
10 0
3 6
0 9
10 0
5 7
7 0
1 9
0 0
15 12

20 17
15
4 14
16 16
6 14
16 6
3 16
6 1
17 16
15 3
19 15
13 13
2 11
19 13
14 9
12 14
18 16
3 1

5 5
5
0 1
4 3
0 3
0 1
4 0
5 2

8 8
3
4 0
5 5
4 3
5 1
