*** Life<ConwayCell> 9x11 ***

Generation = 0, Population = 6.
...........
...........
...........
..*.....*..
...........
...........
*..........
.**........
..........*

Generation = 9, Population = 0.
...........
...........
...........
...........
...........
...........
...........
...........
...........

*** Life<ConwayCell> 6x8 ***

Generation = 0, Population = 10.
....**..
...**.**
........
....*...
...**...
...*....

Generation = 17, Population = 0.
........
........
........
........
........
........

*** Life<ConwayCell> 6x13 ***

Generation = 0, Population = 16.
...*.........
.......**....
*....*.*....*
.*...*..*.*..
.....*.*..*..
.........**..

Generation = 4, Population = 20.
......*..*...
.....*....*..
....**....*..
....*..***.**
....***.....*
..........***

Generation = 8, Population = 12.
....*.*......
...*..*......
...*.........
..**.*.......
...*..*......
....*.*......

Generation = 12, Population = 12.
.............
...***.......
...***.......
....**.......
...**........
...**........

*** Life<ConwayCell> 7x9 ***

Generation = 0, Population = 15.
*.*...*.*
*......**
...*...*.
..*......
........*
.........
..**.*.*.

Generation = 12, Population = 4.
.........
.......**
.......**
.........
.........
.........
.........

*** Life<ConwayCell> 11x12 ***

Generation = 0, Population = 8.
*...........
.*..........
.......*....
............
..........**
...*........
............
............
............
.......*....
..........*.

Generation = 3, Population = 0.
............
............
............
............
............
............
............
............
............
............
............

Generation = 6, Population = 0.
............
............
............
............
............
............
............
............
............
............
............

Generation = 9, Population = 0.
............
............
............
............
............
............
............
............
............
............
............

Generation = 12, Population = 0.
............
............
............
............
............
............
............
............
............
............
............

*** Life<ConwayCell> 5x7 ***

Generation = 0, Population = 14.
***.*..
.*..**.
....*..
**.*.*.
....**.

Generation = 2, Population = 10.
*....*.
.....*.
*....*.
.*.*.*.
....**.

Generation = 4, Population = 6.
.....*.
....*.*
.......
.......
....***

Generation = 6, Population = 0.
.......
.......
.......
.......
.......

Generation = 8, Population = 0.
.......
.......
.......
.......
.......

Generation = 10, Population = 0.
.......
.......
.......
.......
.......

Generation = 12, Population = 0.
.......
.......
.......
.......
.......

*** Life<ConwayCell> 12x7 ***

Generation = 0, Population = 19.
..*....
*..*..*
.......
..*....
...*.*.
..**.*.
.*...**
*..**..
...*...
.......
*......
.....*.

Generation = 1, Population = 13.
.......
.......
.......
.......
...*...
..**.*.
.*...**
..****.
...**..
.......
.......
.......

Generation = 2, Population = 13.
.......
.......
.......
.......
..***..
..**.**
.*....*
..*...*
..*..*.
.......
.......
.......

Generation = 3, Population = 14.
.......
.......
.......
...*...
..*.**.
.*...**
.*.*..*
.**..**
.......
.......
.......
.......

Generation = 4, Population = 17.
.......
.......
.......
...**..
..*****
.*.*..*
**..*..
.**..**
.......
.......
.......
.......

Generation = 5, Population = 13.
.......
.......
.......
..*....
......*
**....*
*..**.*
***..*.
.......
.......
.......
.......

Generation = 6, Population = 14.
.......
.......
.......
.......
.*.....
**....*
...**.*
******.
.*.....
.......
.......
.......

Generation = 7, Population = 14.
.......
.......
.......
.......
**.....
***..*.
......*
**...*.
**.**..
.......
.......
.......

Generation = 8, Population = 16.
.......
.......
.......
.......
*.*....
*.*....
..*..**
***.**.
***.*..
.......
.......
.......

*** Life<ConwayCell> 7x15 ***

Generation = 0, Population = 16.
.*.............
.........***...
..**...*.....*.
*......*.*.....
.....*........*
.............*.
.*.......*.....

Generation = 4, Population = 4.
...............
.........**....
.........**....
...............
...............
...............
...............
