*** Life<ConwayCell> 11x9 ***

Generation = 0, Population = 8.
.......*.
.........
.........
.........
........*
.........
.........
...*.....
........*
....*.*.*
...*.....

Generation = 1, Population = 2.
.........
.........
.........
.........
.........
.........
.........
.........
.......*.
.......*.
.........

Generation = 2, Population = 0.
.........
.........
.........
.........
.........
.........
.........
.........
.........
.........
.........

Generation = 3, Population = 0.
.........
.........
.........
.........
.........
.........
.........
.........
.........
.........
.........

Generation = 4, Population = 0.
.........
.........
.........
.........
.........
.........
.........
.........
.........
.........
.........

*** Life<ConwayCell> 5x14 ***

Generation = 0, Population = 13.
....**........
..*....**...*.
....*....*....
.*...........*
....*.**......

Generation = 2, Population = 3.
....*.........
....*.........
.....*........
..............
..............

*** Life<ConwayCell> 12x13 ***

Generation = 0, Population = 6.
..*..........
....*.*......
............*
.............
.............
.............
......*......
.............
..*..........
.............
.............
.............

*** Life<ConwayCell> 10x7 ***

Generation = 0, Population = 11.
.......
.......
....**.
..*....
..*..*.
.......
*....**
.....*.
.......
.**....

Generation = 2, Population = 8.
.......
.......
....*..
....*..
......*
.....**
....*..
.....**
.......
.......

Generation = 4, Population = 5.
.......
.......
.......
.......
......*
.....**
....*.*
.......
.......
.......

*** Life<ConwayCell> 14x14 ***

Generation = 0, Population = 10.
..............
...*........*.
..............
..*...........
..............
..............
..............
*.............
...*...*......
....*.........
..............
..............
..............
......**.*....

Generation = 2, Population = 0.
..............
..............
..............
..............
..............
..............
..............
..............
..............
..............
..............
..............
..............
..............

Generation = 4, Population = 0.
..............
..............
..............
..............
..............
..............
..............
..............
..............
..............
..............
..............
..............
..............

Generation = 6, Population = 0.
..............
..............
..............
..............
..............
..............
..............
..............
..............
..............
..............
..............
..............
..............

*** Life<ConwayCell> 7x7 ***

Generation = 0, Population = 9.
...*...
....*..
.......
..*....
*.*....
.......
.**.*.*

Generation = 1, Population = 4.
.......
.......
.......
.*.....
.*.....
..**...
.......

Generation = 2, Population = 2.
.......
.......
.......
.......
.*.....
..*....
.......

Generation = 3, Population = 0.
.......
.......
.......
.......
.......
.......
.......

*** Life<ConwayCell> 5x6 ***

Generation = 0, Population = 1.
....*.
......
......
......
......

Generation = 2, Population = 0.
......
......
......
......
......

Generation = 4, Population = 0.
......
......
......
......
......

*** Life<ConwayCell> 11x8 ***

Generation = 0, Population = 3.
........
.*......
........
........
........
........
........
......*.
........
*.......
........

Generation = 1, Population = 0.
........
........
........
........
........
........
........
........
........
........
........

Generation = 2, Population = 0.
........
........
........
........
........
........
........
........
........
........
........

Generation = 3, Population = 0.
........
........
........
........
........
........
........
........
........
........
........

Generation = 4, Population = 0.
........
........
........
........
........
........
........
........
........
........
........

Generation = 5, Population = 0.
........
........
........
........
........
........
........
........
........
........
........

*** Life<ConwayCell> 12x10 ***

Generation = 0, Population = 12.
..*....*..
.*.*......
...*......
....*.*...
..........
..........
........*.
...*.....*
..........
...*....*.
..........
..........

Generation = 2, Population = 5.
..........
....*.....
..***.....
...*......
..........
..........
..........
..........
..........
..........
..........
..........

Generation = 4, Population = 7.
..........
...*......
..*.**....
..*.*.....
...*......
..........
..........
..........
..........
..........
..........
..........

Generation = 6, Population = 8.
..........
...***....
..*.......
..*..*....
...**.....
..........
..........
..........
..........
..........
..........
..........

*** Life<ConwayCell> 13x14 ***

Generation = 0, Population = 11.
.......*......
..............
............*.
*.....*.......
...........*..
...*..........
.........*....
..............
.........*....
........*.....
..............
..*...........
...........*..

Generation = 2, Population = 0.
..............
..............
..............
..............
..............
..............
..............
..............
..............
..............
..............
..............
..............

Generation = 4, Population = 0.
..............
..............
..............
..............
..............
..............
..............
..............
..............
..............
..............
..............
..............

Generation = 6, Population = 0.
..............
..............
..............
..............
..............
..............
..............
..............
..............
..............
..............
..............
..............

Generation = 8, Population = 0.
..............
..............
..............
..............
..............
..............
..............
..............
..............
..............
..............
..............
..............
