10

8 8
11
5 3
1 4
6 3
5 1
4 3
1 5
1 4
6 4
6 0
5 1
7 3
6 2

7 13
6
6 1
3 10
1 8
3 4
1 2
4 8
2 1

12 15
10
2 0
3 11
7 0
9 1
10 9
6 0
4 0
0 10
5 1
3 0
3 1

14 14
7
6 1
6 11
5 9
11 4
12 10
13 5
4 8
6 1

13 11
4
7 9
8 6
6 1
0 4
4 1

13 14
13
2 8
8 9
10 11
10 6
6 12
12 3
6 11
0 8
4 13
8 0
5 13
4 5
5 12
6 1

7 14
11
2 8
1 12
4 5
4 1
1 12
3 7
5 4
0 4
2 10
0 5
0 8
8 2

12 14
5
5 5
5 8
8 9
11 5
10 6
8 1

8 13
15
2 10
4 7
5 3
5 7
4 3
7 3
3 10
6 11
6 5
2 12
0 12
2 3
4 0
4 11
1 8
7 2

8 12
14
4 5
7 0
7 7
0 8
4 1
7 7
5 9
5 2
4 7
7 9
5 10
1 10
7 6
5 4
6 1
