10

11 9
9
8 8
9 8
9 6
9 4
9 6
7 3
10 3
4 8
0 7
4 1

5 14
14
1 12
1 2
2 4
0 5
1 8
0 4
1 7
2 9
3 1
1 7
4 7
4 4
4 6
3 13
2 2

12 13
6
1 4
6 6
2 12
1 6
8 2
0 2
1 2

10 7
11
2 4
9 2
4 2
6 5
6 6
3 2
2 5
4 5
7 5
6 0
9 1
4 2

14 14
11
13 9
1 12
9 4
8 3
8 7
13 6
13 7
7 0
13 6
1 3
3 2
6 2

7 7
9
4 0
0 3
1 4
6 1
6 2
6 6
4 2
3 2
6 4
3 1

5 6
6
0 4
0 4
0 4
0 4
0 4
0 4
5 2

11 8
6
1 1
7 6
9 0
1 1
7 6
9 0
5 1

12 10
12
1 3
1 1
9 8
3 4
6 8
0 7
0 2
7 3
7 9
3 6
2 3
9 3
7 2

13 14
11
3 0
0 7
11 2
4 11
2 12
12 11
5 3
3 6
6 9
8 9
9 8
8 2
