6

10 10
24
2 3
2 4
2 5
2 6
3 3
3 4
3 5
3 6
4 3
4 4
4 5
4 6
1 0
0 0
0 2
0 0
0 4
0 5
0 8
0 9
1 8
1 9
1 9
1 7
10 5

4 4
13
0 0
0 1
0 2
0 3
1 0
1 1
1 2
1 3
2 0
2 1
2 2
2 3
2 2
12 3

1 1
1
0 0
1 1

15 15
31
14 14
14 13
14 12
14 11
14 10
13 0
13 1
13 2
13 3
13 4
13 5
13 6
13 7
13 8
13 9
12 0
12 1
12 8
12 9
12 4
12 5
12 6
12 7
12 8
12 9
11 0
11 1
11 2
11 3
11 4
11 5
12 4

9 12
30
3 3
3 3
3 4
3 5
5 6
5 7
5 6
5 8
3 4
1 1
1 2
1 3
1 4
0 1
0 2
0 11
0 10
0 9
0 8
0 7
0 6
0 5
0 4
2 4
2 5
2 6
2 7
2 8
2 9
3 1
20 5

6 6
18
3 3
3 4
3 5
3 2
0 1
0 2
0 3
0 4
0 5
5 4
5 4
5 3
5 2
5 4
2 4
4 2
4 3
3 2
20 5
