*** Life<FredkinCell> 13x13 ***

Generation = 0, Population = 9.
------0------
-------------
---0---------
-------------
-------------
-----00------
------0------
-------------
---00--------
-------------
--0---0------
-------------
-------------

Generation = 1, Population = 31.
-----0-0-----
---0--0------
--0-0--------
---0---------
-----00------
----01-0-----
------10-----
---00-0------
--0110-------
--000-0------
-0-0-0-0-----
--0---0------
-------------

Generation = 2, Population = 28.
---00-0-0----
-------------
-0---00------
-----00------
---0--1------
---01--10----
---0----0----
-----01------
-0---10------
-------------
0--10---0----
-------------
--0---0------

*** Life<FredkinCell> 15x6 ***

Generation = 0, Population = 7.
------
------
------
------
0-----
------
-00-0-
------
------
--0---
------
------
------
------
--0--0

Generation = 2, Population = 20.
------
------
0-----
------
01--0-
------
--200-
--1---
-01-0-
0---0-
------
--0---
--0--0
------
0-011-

Generation = 4, Population = 21.
0-----
------
-10-0-
------
--1-0-
--1---
-2--21
------
0-----
0-----
-0--10
------
--2--0
--0---
00-1--

Generation = 6, Population = 23.
-1--0-
------
---0--
--0---
1---01
0---0-
1---43
1-1---
2-1---
2-0---
0-----
0-2---
------
1---0-
------

*** Life<FredkinCell> 13x11 ***

Generation = 0, Population = 15.
---0-------
-----0--0--
----0000-0-
-------0---
-0----0----
-----------
-----------
----0------
-------0---
-----------
-----------
--0----0---
-----------

Generation = 1, Population = 39.
--0-00--0--
---0-1-----
---011--0-0
-0--000100-
0-0--0-----
-0----0----
----0------
---0-0-0---
----0-0-0--
-------0---
--0----0---
-0-0--0-0--
--0----0---

Generation = 2, Population = 40.
-0-01-00-0-
---1--0---0
-00-22--10-
--------11-
---0-10000-
----0--0---
-0----00---
--0---0----
-----0---0-
--0-0--1---
-------1---
0---00---0-
-----------

Generation = 3, Population = 66.
0---2--1---
---20-1-00-
011033-0---
-0000-0-220
--0-02-11-0
-0----0--0-
0---00--0--
---0--1--0-
-------00-0
-0----0200-
0-0--00200-
-0-011000-0
0---00---0-

Generation = 4, Population = 44.
-0--30---0-
-0--11--110
122--4--1-0
---11------
-010-3-2--1
-----0--0--
----1100-0-
0-0-----0--
-0-0--0----
-----------
-----------
0-012-11---
-------0---

*** Life<FredkinCell> 10x7 ***

Generation = 0, Population = 8.
-------
-00----
-------
-----00
0--0---
------0
-------
-------
-------
----0--

Generation = 1, Population = 26.
-00----
0110---
-00--00
0--0011
-00-00-
0--0-0-
------0
-------
----0--
---0-0-

Generation = 2, Population = 24.
-------
1--1000
0--0---
-0011--
011--1-
----01-
0--0---
----0-0
-------
--0-0-0

Generation = 3, Population = 34.
0--0000
211---1
1---000
0-122--
12--020
-00-1-0
-00-000
0------
--0----
-0-----

Generation = 4, Population = 18.
1--1---
3-2--0-
-------
-02-31-
--1-1--
-1-----
-------
----000
0--0---
0------

*** Life<FredkinCell> 6x13 ***

Generation = 0, Population = 10.
----00---0---
----0------0-
--00-------0-
-------------
------------0
------0------

Generation = 1, Population = 27.
---0-10-0-00-
--0-1----0010
-011------010
--00-------00
------0----0-
-----0-0----0

Generation = 2, Population = 21.
----021--0---
--1---0--1---
01----------1
----0-0----1-
--00------010
----0-0-0----

Generation = 3, Population = 40.
--001--0010--
0--01-10020-0
12--0----0---
000----0---20
-0110---00121
--0------0000

Generation = 4, Population = 31.
0011-2--12-00
1---2-211----
2---100--1-1-
------0------
----10--112-2
--1-0-----11-

*** Life<FredkinCell> 9x13 ***

Generation = 0, Population = 9.
-------------
----0----0---
-------------
--------00---
--------0----
-0-----------
-----------0-
------------0
0------------

Generation = 2, Population = 29.
-------------
--0---0010-0-
--------1----
-0--0-01-210-
------0---00-
---0----10--0
0-------00---
-0--------0-0
--0--------0-

Generation = 4, Population = 27.
--------1----
01--01--32---
-----------0-
----00-------
0---1-------0
-0--10---0---
0------1---0-
---------00-0
--0-0---0--0-

Generation = 6, Population = 48.
------0-3-00-
2---23----11-
1---0---31--1
1-01--120----
------10--0-0
--1-121--0111
-----1--1--00
-0--10-10220-
-------1000--

Generation = 8, Population = 27.
1----------0-
--0------3--0
1-------3----
30------0-3-0
1---------21-
-1--34-------
---0---13----
----3-0-04---
------1-2----

*** Life<FredkinCell> 14x9 ***

Generation = 0, Population = 15.
0--------
--------0
---------
-------0-
--00---0-
---0--0-0
---------
---------
-0-------
---0-----
------0--
------0--
-0-------
--------0

Generation = 2, Population = 36.
--0------
------010
0-00---1-
---1-01--
01--1----
-0--1101-
-001---0-
------0-0
---1--0--
-1---01--
----0---0
---00----
---0--1--
---------

Generation = 4, Population = 33.
---10--1-
---10----
0--------
---3---1-
-1-0--0--
--011-01-
------1--
------21-
--11-0-1-
---1--11-
--0-----0
--1------
-0---1---
---10----

*** Life<FredkinCell> 10x12 ***

Generation = 0, Population = 8.
0-----------
------------
0----0-----0
------------
------------
------------
------------
-0------0---
-----0-----0
------------

Generation = 2, Population = 25.
0-0--0-----0
------------
--00---0-0-0
------------
0----0-----0
-0------0---
-----0-----0
---0--0---0-
---0---0-0-0
-0------0---
