8

13 13
9
6 6
10 2
10 6
5 5
8 4
5 6
2 3
8 3
0 6
2 1

15 6
7
6 4
14 5
6 2
9 2
6 1
14 2
4 0
7 2

13 11
15
4 6
0 3
2 5
2 9
2 6
2 4
7 4
2 7
4 1
1 8
1 5
11 2
8 7
11 7
3 7
4 1

10 7
8
4 3
3 5
1 1
9 4
4 0
1 2
5 6
3 6
4 1

6 13
10
4 12
2 2
1 4
0 9
0 5
1 11
0 4
5 6
2 11
2 3
4 1

9 13
9
5 1
1 9
7 12
6 11
8 0
4 8
3 9
3 8
1 4
8 2

14 9
15
4 3
10 6
4 7
1 8
0 0
13 8
5 6
8 1
4 2
9 3
11 6
12 1
5 3
5 8
3 7
4 2

10 12
8
2 5
8 11
7 8
2 11
0 0
2 0
8 5
7 1
3 2
