14

12 15
9
4 12
10 14
3 10
9 12
6 2
1 9
9 12
5 6
3 12
5 2

6 9
11
5 8
2 4
4 8
3 8
0 0
2 3
4 6
5 0
3 5
4 4
0 3
8 1

9 15
14
6 6
8 2
3 1
0 0
1 7
3 2
7 5
8 10
3 10
5 12
2 14
5 10
3 12
5 14
5 2

13 9
10
4 7
4 0
4 4
12 8
10 6
2 1
1 6
0 6
0 1
9 8
5 2

13 15
13
12 2
12 2
6 2
9 4
3 1
10 0
9 8
12 5
3 7
12 2
9 8
12 8
7 13
3 2

5 12
6
0 3
1 4
0 1
4 11
4 3
4 8
8 2

15 6
14
12 4
10 5
3 5
2 5
3 4
9 3
0 3
10 0
5 5
13 1
11 0
4 2
13 4
14 4
4 1

5 9
10
4 1
4 5
4 1
4 5
2 7
3 5
0 5
3 0
0 4
3 7
3 2

15 15
12
2 8
10 1
12 4
0 13
1 7
0 9
6 2
3 13
3 10
6 13
4 13
12 1
6 2

14 13
6
5 1
3 12
7 5
0 4
6 0
0 4
2 2

14 7
9
6 2
4 3
3 2
5 4
8 3
11 4
0 0
10 1
11 5
3 2

8 5
10
7 1
6 4
7 2
5 3
4 1
1 2
3 0
3 4
5 4
7 3
8 1

5 5
6
4 0
3 1
3 3
4 3
4 2
4 2
4 1

5 11
13
4 0
0 9
3 7
1 2
1 1
1 9
2 3
3 4
3 10
1 9
4 0
4 1
4 3
4 1
