7

13 9
1
0 5
83 4

7 8
19
4 3
5 3
3 0
4 4
3 3
3 2
2 3
1 3
5 3
2 1
6 7
6 3
0 2
6 5
1 0
0 2
6 5
6 3
0 3
1 17

7 10
4
3 6
6 0
3 4
4 5
89 8

2 1
11
0 0
0 0
0 0
0 0
0 0
0 0
1 0
0 0
1 0
0 0
1 0
84 9

4 7
20
2 1
0 4
1 0
3 2
2 2
3 1
2 3
0 1
0 0
2 5
2 5
1 5
0 5
2 1
0 3
2 1
1 1
0 1
0 3
1 3
32 17

12 9
15
10 7
10 1
11 0
9 0
8 0
9 3
3 7
7 0
6 6
3 6
9 0
11 4
4 4
9 6
1 1
76 6

12 10
8
6 6
0 8
2 8
11 9
0 2
5 7
1 3
11 8
80 15
