10

9 11
18
0 8
0 0
6 4
4 1
2 2
1 10
1 3
6 0
5 10
7 6
8 4
2 3
8 1
1 1
0 0
8 8
5 5
2 0
3 1

5 8
5
4 6
1 5
4 7
0 0
4 3
3 1

10 6
2
7 5
0 2
7 3

9 5
1
6 2
5 1

10 12
2
3 5
9 0
9 2

5 6
9
4 2
4 5
0 4
4 0
1 1
3 2
0 0
2 0
3 0
10 3

12 14
9
10 5
11 1
4 13
5 10
2 3
3 7
10 5
4 7
10 4
8 3

13 14
8
10 4
5 5
5 5
4 3
2 1
1 11
11 2
10 10
14 3

11 15
9
4 3
4 5
10 4
4 0
10 1
3 2
4 5
2 2
3 3
10 3

8 11
20
3 5
4 5
1 4
4 2
4 5
0 4
4 0
1 1
3 2
4 0
1 1
5 5
5 5
4 3
2 1
1 10
1 2
3 2
4 5
2 2
6 1
