*** Life<FredkinCell> 4x4 ***

Generation = 0, Population = 5.
000-
00--
----
----

Generation = 1, Population = 5.
-110
----
00--
----

Generation = 2, Population = 11.
02-1
0-00
110-
00--

*** Life<FredkinCell> 4x4 ***

Generation = 0, Population = 4.
-00-
00--
----
----

Generation = 1, Population = 5.
--10
1---
00--
----

Generation = 2, Population = 11.
0021
2-00
-10-
00--

*** Life<FredkinCell> 4x4 ***

Generation = 0, Population = 4.
0-0-
00--
----
----

Generation = 1, Population = 6.
10-0
-1--
00--
----

Generation = 2, Population = 8.
2---
0-00
1-0-
00--

*** Life<FredkinCell> 4x4 ***

Generation = 0, Population = 4.
000-
-0--
----
----

Generation = 1, Population = 6.
1110
-1--
-0--
----

Generation = 2, Population = 8.
22-1
---0
010-
-0--

*** Life<FredkinCell> 4x4 ***

Generation = 0, Population = 4.
00--
00--
----
----

Generation = 1, Population = 4.
--0-
--0-
00--
----

Generation = 2, Population = 10.
-010
0-10
11--
00--

*** Life<FredkinCell> 10x10 ***

Generation = 0, Population = 3.
----------
----------
----------
----------
000-------
----------
----------
----------
----------
----------

Generation = 1, Population = 9.
----------
----------
----------
000-------
1-10------
000-------
----------
----------
----------
----------

Generation = 2, Population = 9.
----------
----------
000-------
----------
--210-----
----------
000-------
----------
----------
----------

*** Life<FredkinCell> 8x8 ***

Generation = 0, Population = 3.
--------
--------
--------
--------
--------
000-----
--------
--------

Generation = 1, Population = 9.
--------
--------
--------
--------
000-----
1-10----
000-----
--------

*** Life<FredkinCell> 5x5 ***

Generation = 0, Population = 3.
-----
-----
000--
-----
-----

Generation = 1, Population = 9.
-----
000--
1-10-
000--
-----

Generation = 2, Population = 9.
000--
-----
--210
-----
000--

*** Life<FredkinCell> 5x5 ***

Generation = 0, Population = 3.
-----
-----
-----
000--
-----

Generation = 1, Population = 9.
-----
-----
000--
1-10-
000--

Generation = 2, Population = 6.
-----
000--
-----
--210
-----

*** Life<FredkinCell> 10x10 ***

Generation = 0, Population = 3.
----------
----------
----------
-0--------
----------
----------
00--------
----------
----------
----------

Generation = 1, Population = 11.
----------
----------
-0--------
0-0-------
-0--------
00--------
110-------
00--------
----------
----------

Generation = 2, Population = 10.
----------
-0--------
----------
---0------
01--------
-1--------
2-10------
----------
00--------
----------

*** Life<FredkinCell> 10x10 ***

Generation = 0, Population = 5.
0-0-------
00--------
----------
----------
----------
----------
----------
-0--------
----------
----------

Generation = 1, Population = 10.
10-0------
-1--------
00--------
----------
----------
----------
-0--------
0-0-------
-0--------
----------

Generation = 2, Population = 12.
2---0-----
0-00------
1-0-------
00--------
----------
-0--------
----------
---0------
----------
-0--------

*** Life<FredkinCell> 10x10 ***

Generation = 0, Population = 4.
-00-------
-0------0-
----------
----------
----------
----------
----------
----------
----------
----------

Generation = 1, Population = 10.
0-10----0-
01-----0-0
-0------0-
----------
----------
----------
----------
----------
----------
----------

Generation = 2, Population = 11.
10210-----
---0--0---
-10-------
-0------0-
----------
----------
----------
----------
----------
----------

*** Life<FredkinCell> 10x10 ***

Generation = 0, Population = 5.
0-0-------
00-------0
----------
----------
----------
----------
----------
----------
----------
----------

Generation = 1, Population = 9.
10-0-----0
-1------0-
00-------0
----------
----------
----------
----------
----------
----------
----------

Generation = 2, Population = 12.
2---0-----
0-00---0-0
1-0-------
00-------0
----------
----------
----------
----------
----------
----------

*** Life<FredkinCell> 10x10 ***

Generation = 0, Population = 5.
000-------
-0--0-----
----------
----------
----------
----------
----------
----------
----------
----------

Generation = 1, Population = 10.
11100-----
-1-0-0----
-0--0-----
----------
----------
----------
----------
----------
----------
----------

Generation = 2, Population = 12.
22-11-----
--01--0---
010-------
-0--0-----
----------
----------
----------
----------
----------
----------

*** Life<FredkinCell> 10x10 ***

Generation = 0, Population = 5.
00---0----
00--------
----------
----------
----------
----------
----------
----------
----------
----------

Generation = 1, Population = 7.
--0-0-0---
--0--0----
00--------
----------
----------
----------
----------
----------
----------
----------

Generation = 2, Population = 12.
-01--0-0--
0-10------
11---0----
00--------
----------
----------
----------
----------
----------
----------

*** Life<FredkinCell> 10x10 ***

Generation = 0, Population = 4.
----------
----------
----------
--0-------
00--------
----------
----------
----------
-0--------
----------

Generation = 1, Population = 11.
----------
----------
--0-------
0--0------
11--------
00--------
----------
-0--------
0-0-------
-0--------

Generation = 2, Population = 11.
----------
--0-------
00--------
1---0-----
2-00------
--0-------
0---------
----------
---0------
----------

*** Life<FredkinCell> 10x10 ***

Generation = 0, Population = 4.
----------
----------
----------
-0--------
----------
000-------
----------
----------
----------
----------

Generation = 1, Population = 11.
----------
----------
-0--------
0-0-------
0-0-------
1-10------
000-------
----------
----------
----------

Generation = 2, Population = 12.
----------
-0--------
----------
1010------
----------
-0210-----
----------
000-------
----------
----------

*** Life<FredkinCell> 5x5 ***

Generation = 0, Population = 4.
-----
-----
000--
-----
-0---

Generation = 1, Population = 10.
-----
000--
1-10-
0-0--
0-0--

Generation = 2, Population = 10.
000--
-----
-0210
-----
1-10-

*** Life<FredkinCell> 5x5 ***

Generation = 0, Population = 3.
-----
-----
-----
000--
-----

Generation = 1, Population = 9.
-----
-----
000--
1-10-
000--

Generation = 2, Population = 6.
-----
000--
-----
--210
-----

*** Life<FredkinCell> 10x10 ***

Generation = 0, Population = 2.
----------
----------
----------
----------
----------
----------
----------
----------
----------
00--------

Generation = 1, Population = 5.
----------
----------
----------
----------
----------
----------
----------
----------
00--------
110-------

Generation = 2, Population = 5.
----------
----------
----------
----------
----------
----------
----------
00--------
----------
-210------
