*** Life<ConwayCell> 12x37 ***

Generation = 0, Population = 23.
...*.................*...............
..........**.....*..........*.......*
....*..............*.................
..........*..........................
.*............*...........*.........*
......*..............................
.....................................
......*....*.................*.....*.
...................*.................
.....................................
..................*........*.........
..............................*......

Generation = 8, Population = 0.
.....................................
.....................................
.....................................
.....................................
.....................................
.....................................
.....................................
.....................................
.....................................
.....................................
.....................................
.....................................

*** Life<ConwayCell> 13x9 ***

Generation = 0, Population = 1.
.....*...
.........
.........
.........
.........
.........
.........
.........
.........
.........
.........
.........
.........

Generation = 4, Population = 0.
.........
.........
.........
.........
.........
.........
.........
.........
.........
.........
.........
.........
.........

Generation = 8, Population = 0.
.........
.........
.........
.........
.........
.........
.........
.........
.........
.........
.........
.........
.........

Generation = 12, Population = 0.
.........
.........
.........
.........
.........
.........
.........
.........
.........
.........
.........
.........
.........

Generation = 16, Population = 0.
.........
.........
.........
.........
.........
.........
.........
.........
.........
.........
.........
.........
.........

Generation = 20, Population = 0.
.........
.........
.........
.........
.........
.........
.........
.........
.........
.........
.........
.........
.........

Generation = 24, Population = 0.
.........
.........
.........
.........
.........
.........
.........
.........
.........
.........
.........
.........
.........

Generation = 28, Population = 0.
.........
.........
.........
.........
.........
.........
.........
.........
.........
.........
.........
.........
.........

Generation = 32, Population = 0.
.........
.........
.........
.........
.........
.........
.........
.........
.........
.........
.........
.........
.........

Generation = 36, Population = 0.
.........
.........
.........
.........
.........
.........
.........
.........
.........
.........
.........
.........
.........

Generation = 40, Population = 0.
.........
.........
.........
.........
.........
.........
.........
.........
.........
.........
.........
.........
.........

Generation = 44, Population = 0.
.........
.........
.........
.........
.........
.........
.........
.........
.........
.........
.........
.........
.........

Generation = 48, Population = 0.
.........
.........
.........
.........
.........
.........
.........
.........
.........
.........
.........
.........
.........

Generation = 52, Population = 0.
.........
.........
.........
.........
.........
.........
.........
.........
.........
.........
.........
.........
.........

Generation = 56, Population = 0.
.........
.........
.........
.........
.........
.........
.........
.........
.........
.........
.........
.........
.........

Generation = 60, Population = 0.
.........
.........
.........
.........
.........
.........
.........
.........
.........
.........
.........
.........
.........

Generation = 64, Population = 0.
.........
.........
.........
.........
.........
.........
.........
.........
.........
.........
.........
.........
.........

Generation = 68, Population = 0.
.........
.........
.........
.........
.........
.........
.........
.........
.........
.........
.........
.........
.........

Generation = 72, Population = 0.
.........
.........
.........
.........
.........
.........
.........
.........
.........
.........
.........
.........
.........

Generation = 76, Population = 0.
.........
.........
.........
.........
.........
.........
.........
.........
.........
.........
.........
.........
.........

Generation = 80, Population = 0.
.........
.........
.........
.........
.........
.........
.........
.........
.........
.........
.........
.........
.........

*** Life<ConwayCell> 5x8 ***

Generation = 0, Population = 5.
*.......
.....*..
........
........
...*..**

Generation = 1, Population = 0.
........
........
........
........
........

Generation = 2, Population = 0.
........
........
........
........
........

Generation = 3, Population = 0.
........
........
........
........
........

*** Life<ConwayCell> 3x7 ***

Generation = 0, Population = 3.
.....**
.*.....
.......

Generation = 1, Population = 0.
.......
.......
.......

*** Life<ConwayCell> 7x10 ***

Generation = 0, Population = 4.
..........
..........
..........
....*.*...
.....*....
..........
*.........

Generation = 8, Population = 0.
..........
..........
..........
..........
..........
..........
..........

Generation = 16, Population = 0.
..........
..........
..........
..........
..........
..........
..........

Generation = 24, Population = 0.
..........
..........
..........
..........
..........
..........
..........

Generation = 32, Population = 0.
..........
..........
..........
..........
..........
..........
..........

Generation = 40, Population = 0.
..........
..........
..........
..........
..........
..........
..........

Generation = 48, Population = 0.
..........
..........
..........
..........
..........
..........
..........

Generation = 56, Population = 0.
..........
..........
..........
..........
..........
..........
..........

Generation = 64, Population = 0.
..........
..........
..........
..........
..........
..........
..........

Generation = 72, Population = 0.
..........
..........
..........
..........
..........
..........
..........

Generation = 80, Population = 0.
..........
..........
..........
..........
..........
..........
..........

Generation = 88, Population = 0.
..........
..........
..........
..........
..........
..........
..........

*** Life<ConwayCell> 19x3 ***

Generation = 0, Population = 9.
...
*..
...
...
.*.
...
...
...
**.
...
...
...
...
*.*
..*
...
.*.
...
.*.

Generation = 2, Population = 0.
...
...
...
...
...
...
...
...
...
...
...
...
...
...
...
...
...
...
...

Generation = 4, Population = 0.
...
...
...
...
...
...
...
...
...
...
...
...
...
...
...
...
...
...
...

*** Life<ConwayCell> 6x7 ***

Generation = 0, Population = 10.
..*..**
...**..
.....*.
.*.....
.*...**
.......

Generation = 3, Population = 6.
.......
...*.*.
....**.
....**.
.......
.......

*** Life<ConwayCell> 4x7 ***

Generation = 0, Population = 15.
**.***.
**.*.*.
.***.*.
.**....

Generation = 17, Population = 0.
.......
.......
.......
.......

*** Life<ConwayCell> 5x6 ***

Generation = 0, Population = 9.
*...*.
.*....
*.....
*.*...
*.*..*

Generation = 3, Population = 4.
......
**....
**....
......
......

Generation = 6, Population = 4.
......
**....
**....
......
......

Generation = 9, Population = 4.
......
**....
**....
......
......
