*** Life<FredkinCell> 9x8 ***

Generation = 0, Population = 1.
--------
--------
--------
--0-----
--------
--------
--------
--------
--------

Generation = 2, Population = 4.
--------
--0-----
--------
0---0---
--------
--0-----
--------
--------
--------

Generation = 4, Population = 3.
--------
--------
--------
0-----0-
--------
--------
--------
--0-----
--------

*** Life<FredkinCell> 10x8 ***

Generation = 0, Population = 5.
--------
-0------
--------
--------
-----0--
0-------
------0-
--------
--------
---0----

Generation = 2, Population = 17.
--------
---0----
-----0--
00------
---0--10
0-0-----
----01--
0--0----
------0-
-0-0-0--

Generation = 4, Population = 16.
-----0--
0----1--
------1-
--------
-1-----2
-0001---
--1---1-
---0----
-----0--
1------0

Generation = 6, Population = 45.
---0-210
0-00---0
-0--00-1
120000--
--01-0-2
102-311-
00---3-1
0-0011-0
--01--11
--00-1--

*** Life<FredkinCell> 13x10 ***

Generation = 0, Population = 4.
----------
----------
----------
-------0--
----------
----------
----------
----------
----------
-0--0----0
----------
----------
----------

Generation = 1, Population = 15.
----------
----------
-------0--
------0-0-
-------0--
----------
----------
----------
-0--0----0
0-00-0--0-
-0--0----0
----------
----------

Generation = 2, Population = 15.
----------
-------0--
----------
-----0---0
----------
-------0--
----------
-0--0----0
----------
--11--00-0
----------
-0--0----0
----------

Generation = 3, Population = 50.
-------0--
------0-0-
-----0-0-0
----0-0-0-
-----0-0-0
------0-0-
-0--0--0-0
0-00-0--0-
-0000-00--
-0220011--
-0000-00--
0-00-0--0-
-0--0----0

Generation = 4, Population = 10.
----------
----------
----------
---0-----0
----------
-0--0----0
----------
-------0--
----------
01-----20-
----------
----------
----------

Generation = 5, Population = 33.
----------
----------
---0-----0
--0-0---0-
-0-00-----
0-00-0--0-
-0--0--0-0
------0-0-
00------0-
122---1310
00-----00-
----------
----------

*** Life<FredkinCell> 15x9 ***

Generation = 0, Population = 6.
---------
---------
---------
---------
-0-------
---------
------0--
---------
-------0-
---------
-----0---
----0----
-0-------
---------
---------

Generation = 2, Population = 17.
---------
---------
-0-------
---------
---0--0--
---------
-0--0--10
---------
------1--
----0----
-0-0-----
--0---0--
---0-0---
----0----
-0-------

*** Life<FredkinCell> 5x12 ***

Generation = 0, Population = 5.
-0-------0--
------------
-----0------
-0----------
----0-------

Generation = 1, Population = 17.
0-0-----0-0-
-0---0---0--
-0--0-0-----
0-0-00------
-0-0-0------

Generation = 2, Population = 17.
-0-0-0-0-0-0
-1----------
-1-01--0-0--
---0--------
--0-010-----

Generation = 3, Population = 25.
01----------
0-0-00-----0
02--200---0-
-0-10000-0--
-0-01-10----

Generation = 4, Population = 11.
-2--00-----0
------------
----3-------
-----1------
01---1--00--

Generation = 5, Population = 27.
0-00110---0-
-1---0-----0
---0--------
00---20-00--
120-1210110-

*** Life<FredkinCell> 13x6 ***

Generation = 0, Population = 3.
---0--
------
------
------
------
------
------
0-----
------
------
-0----
------
------

Generation = 1, Population = 10.
--0-0-
---0--
------
------
------
------
0-----
-0----
0-----
-0----
0-0---
-0----
------

Generation = 2, Population = 11.
-0-0-0
------
---0--
------
------
0-----
------
0-0---
-0----
0-----
---0--
------
-0----

Generation = 3, Population = 20.
0-----
-0---0
--0-0-
---0--
0-----
-0----
--0---
-0-0--
0-----
---0--
0-0-0-
-0-0--
0-0---

Generation = 4, Population = 11.
-----0
------
---0--
0-----
---0--
------
-0----
--0-0-
------
------
-0---0
0-----
-0----

Generation = 5, Population = 24.
----0-
---0-0
0-0-0-
-0----
0-0-0-
-0-0--
0---0-
-----0
--0-0-
-0---0
--0-0-
-0---0
--0---

*** Life<FredkinCell> 12x12 ***

Generation = 0, Population = 3.
------------
------------
------------
------------
------------
------------
----------0-
----------0-
------------
--0---------
------------
------------

Generation = 2, Population = 10.
------------
------------
------------
------------
----------0-
----------1-
--------0---
--0-----0---
----------1-
0---0-----0-
------------
--0---------

Generation = 4, Population = 12.
------------
------------
----------0-
----------1-
------------
--0---------
------0---2-
------0---2-
------------
0-----0-----
----------1-
--0-------0-

Generation = 6, Population = 25.
----------0-
----------1-
--------0---
--0-----0---
------0-----
0---0-1-----
----0-------
0-0-0-2-----
------0-----
0---0-0-0---
--------0---
--0-0-0-0-2-

*** Life<FredkinCell> 8x10 ***

Generation = 0, Population = 3.
-------0--
--------0-
----------
----------
----------
----------
---0------
----------

Generation = 1, Population = 7.
------0---
---------0
--------0-
----------
----------
---0------
--0-0-----
---0------

*** Life<FredkinCell> 14x10 ***

Generation = 0, Population = 1.
----------
----------
----------
----------
----------
----------
--------0-
----------
----------
----------
----------
----------
----------
----------

Generation = 1, Population = 4.
----------
----------
----------
----------
----------
--------0-
-------0-0
--------0-
----------
----------
----------
----------
----------
----------

*** Life<FredkinCell> 6x7 ***

Generation = 0, Population = 3.
-0-----
-0-----
-------
---0---
-------
-------

Generation = 1, Population = 11.
010----
010----
-0-0---
--0-0--
---0---
-------

Generation = 2, Population = 5.
-2-0---
-------
-1-----
-----0-
-------
---0---

Generation = 3, Population = 13.
0---0--
---0---
0-0--0-
-0--0-0
---0-0-
--0-0--

Generation = 4, Population = 7.
-2---0-
-----0-
-1-----
-------
-0-----
-0-0---

Generation = 5, Population = 18.
0-0-010
----010
0-0--0-
-------
0100---
01--0--

Generation = 6, Population = 10.
-----2-
---0---
---0-1-
-0-0-0-
-2-1---
-----0-

*** Life<FredkinCell> 14x8 ***

Generation = 0, Population = 3.
--------
--------
-----0--
--------
-------0
--------
--------
--------
--------
--------
--------
--------
---0----
--------

Generation = 2, Population = 7.
-----0--
--------
---0----
--------
-------0
--------
-------0
--------
--------
--------
---0----
--------
-0---0--
--------

*** Life<FredkinCell> 5x14 ***

Generation = 0, Population = 2.
--------------
--------------
0---0---------
--------------
--------------

Generation = 2, Population = 6.
0---0---------
--------------
0-----0-------
--------------
0---0---------

Generation = 4, Population = 8.
0---0---------
--------------
0-0-0---0-----
--------------
0---0---------

Generation = 6, Population = 10.
0-0---0-0-----
--------------
----0-----0---
--------------
0-0---0-0-----

*** Life<FredkinCell> 6x6 ***

Generation = 0, Population = 4.
------
------
------
-0----
----0-
-0--0-

Generation = 2, Population = 9.
------
-0----
----0-
-0-01-
--0---
--112-

Generation = 4, Population = 9.
----0-
-0--1-
------
----11
0-----
0---41

*** Life<FredkinCell> 15x13 ***

Generation = 0, Population = 1.
-------------
-------------
-------------
-------------
-------------
-------------
-------------
-------------
-------------
-------------
---------0---
-------------
-------------
-------------
-------------

Generation = 1, Population = 4.
-------------
-------------
-------------
-------------
-------------
-------------
-------------
-------------
-------------
---------0---
--------0-0--
---------0---
-------------
-------------
-------------

Generation = 2, Population = 4.
-------------
-------------
-------------
-------------
-------------
-------------
-------------
-------------
---------0---
-------------
-------0---0-
-------------
---------0---
-------------
-------------

Generation = 3, Population = 16.
-------------
-------------
-------------
-------------
-------------
-------------
-------------
---------0---
--------0-0--
-------0-0-0-
------0-0-0-0
-------0-0-0-
--------0-0--
---------0---
-------------

*** Life<FredkinCell> 8x15 ***

Generation = 0, Population = 2.
---------------
---------------
---------------
---------------
---0-----------
---------------
---------------
----0----------

Generation = 2, Population = 8.
---------------
---------------
---0-----------
---------------
-0---0---------
----0----------
---0-----------
--0-0-0--------

Generation = 4, Population = 6.
---0-----------
---------------
---------------
----0----------
-------0-------
----0----------
---------------
0-------0------

*** Life<FredkinCell> 6x7 ***

Generation = 0, Population = 4.
0------
-0-0---
-------
-0-----
-------
-------

Generation = 2, Population = 6.
--0----
---0-0-
0------
-0-----
-------
-0-----

Generation = 4, Population = 9.
--0-0--
---0-0-
0------
-0---0-
0------
---0---

*** Life<FredkinCell> 11x5 ***

Generation = 0, Population = 3.
-----
-----
-----
-----
0----
-----
-----
0-0--
-----
-----
-----

Generation = 1, Population = 8.
-----
-----
-----
0----
-0---
0----
0-0--
---0-
0-0--
-----
-----

*** Life<FredkinCell> 12x7 ***

Generation = 0, Population = 1.
-------
-------
-------
-------
-------
-------
-------
-------
-------
-------
---0---
-------

Generation = 1, Population = 4.
-------
-------
-------
-------
-------
-------
-------
-------
-------
---0---
--0-0--
---0---

Generation = 2, Population = 3.
-------
-------
-------
-------
-------
-------
-------
-------
---0---
-------
-0---0-
-------

Generation = 3, Population = 12.
-------
-------
-------
-------
-------
-------
-------
---0---
--0-0--
-0-0-0-
0-0-0-0
-0---0-

*** Life<FredkinCell> 8x6 ***

Generation = 0, Population = 3.
0-----
------
------
--0---
------
------
----0-
------

Generation = 1, Population = 10.
-0----
0-----
--0---
-0-0--
--0---
----0-
---0-0
----0-

Generation = 2, Population = 8.
--0---
--0---
0-----
0---0-
----0-
--0---
--0---
------

Generation = 3, Population = 29.
-010--
0010--
100-0-
10-010
0-0010
-0100-
-010--
--0---

Generation = 4, Population = 8.
--2-0-
------
2---1-
2-----
1-----
------
0-----
--1---

Generation = 5, Population = 17.
-0---0
0-1---
30-0-0
-0--1-
20----
------
-01---
00-0--

Generation = 6, Population = 15.
----0-
1-----
--0-1-
2-0---
3-0-1-
0-1---
--2---
1-1-0-

Generation = 7, Population = 19.
0--0-0
-01---
-01--0
3--0--
-----0
1--00-
-0-00-
--2--0

*** Life<FredkinCell> 14x12 ***

Generation = 0, Population = 5.
------------
---------0--
------0-----
------------
------------
0--0--------
------------
------------
------------
----------0-
------------
------------
------------
------------

Generation = 2, Population = 18.
------0-----
-------0---0
----0---0---
0--0-----0--
------0-----
011--0------
------------
0--0------0-
------------
--------0---
------------
----------0-
------------
------------
