*** Life<FredkinCell> 43x54 ***

Generation = 0, Population = 16.
------------------------------------------------------
------------------------------------------------------
------------------------------------------------------
----00----0-------------------------------------------
--------------------------------------------0---------
------0-----------------------------------------------
------------------------------------------------------
------------------------------------------------------
------------------------------------------------------
------------------------------------------------------
------------------------------------------------------
------------------------------------------------------
--------------0-------------------0----------0--------
------------------------------------------------------
------------------------------------------------------
------------------------------------------------------
------------------------------------------------------
------------------------------------------------------
------------------------------------------------------
------------------------------------------------------
------------------------------------------------------
------------------------------------------------------
------------------------------------------------------
----0---------------------------0--------0---0--------
------------------------------------------------------
------------------------------------------------------
------------------------------------------------------
------------------------------------------------------
------------------------------------------------------
------------------------------------------------------
------------------------------------------------------
------------------------------------------------------
-----------------------0------------------------------
------------0-----------------------------------------
--------------------------------0---------------------
------------------------------------------------------
------------------------------------------------------
------------------------------------------------------
------------------------------------------------------
------------------------------------------------------
---------------------0--------------------------------
------------------------------------------------------
------------------------------------------------------

*** Life<FredkinCell> 43x54 ***

Generation = 0, Population = 16.
------------------------------------------------------
------------------------------------------------------
------------------------------------------------------
----00----0-------------------------------------------
--------------------------------------------0---------
------0-----------------------------------------------
------------------------------------------------------
------------------------------------------------------
------------------------------------------------------
------------------------------------------------------
------------------------------------------------------
------------------------------------------------------
--------------0-------------------0----------0--------
------------------------------------------------------
------------------------------------------------------
------------------------------------------------------
------------------------------------------------------
------------------------------------------------------
------------------------------------------------------
------------------------------------------------------
------------------------------------------------------
------------------------------------------------------
------------------------------------------------------
----0-------------------0-------0--------0------------
------------------------------------------------------
------------------------------------------------------
------------------------------------------------------
------------------------------------------------------
------------------------------------------------------
------------------------------------------------------
------------------------------------------------------
------------------------------------------------------
-----------------------0------------------------------
------------0-----------------------------------------
--------------------------------0---------------------
------------------------------------------------------
------------------------------------------------------
------------------------------------------------------
------------------------------------------------------
------------------------------------------------------
---------------------0--------------------------------
------------------------------------------------------
------------------------------------------------------

*** Life<FredkinCell> 43x54 ***

Generation = 0, Population = 16.
------------------------------------------------------
------------------------------------------------------
------------------------------------------------------
----00----0-------------------------------------------
--------------------------------------------0---------
------0-----------------------------------------------
------------------------------------------------------
------------------------------------------------------
------------------------------------------------------
------------------------------------------------------
------------------------------------------------------
------------------------------------------------------
--------------0-------------------0----------0--------
------------------------------------------------------
------------------------------------------------------
------------------------------------------------------
------------------------------------------------------
------------------------------------------------------
------------------------------------------------------
------------------------------------------------------
------------------------------------------------------
------------------------------------------------------
------------------------------------------------------
----0-------------------0-------0--------0------------
------------------------------------------------------
------------------------------------------------------
------------------------------------------------------
------------------------------------------------------
------------------------------------------------------
------------------------------------------------------
------------------------------------------------------
------------------------------------------------------
-----------------------0------------------------------
------------0-----------------------------------------
--------------------------------0---------------------
------------------------------------------------------
------------------------------------------------------
------------------------------------------------------
------------------------------------------------------
------------------------------------------------------
---------------------0--------------------------------
------------------------------------------------------
------------------------------------------------------

*** Life<FredkinCell> 43x54 ***

Generation = 0, Population = 17.
------------------------------------------------------
------------------------------------------------------
------------------------------------------------------
----00----0-------------------------------------------
--------------------------------------------0---------
------0-----------------------------------------------
------------------------------------------------------
------------------------------------------------------
------------------------------------------------------
------------------------------------------------------
------------------------------------------------------
------------------------------------------------------
--------------0-------------------0----------0--------
------------------------------------------------------
------------------------------------------------------
------------------------------------------------------
------------------------------------------------------
------------------------------------------------------
------------------------------------------------------
------------------------------------------------------
------------------------------------------------------
------------------------------------------------------
------------------------------------------------------
----0-------------------0-------0--------0------------
------------------------------------------------------
------------------------------------------------------
------------------------------------------------------
------------------------------------------------------
------------------------------------------------------
------------------------------------------------------
------------------------------------------------------
------------------------------------------------------
-----------------------0--------------------------0---
------------0-----------------------------------------
--------------------------------0---------------------
------------------------------------------------------
------------------------------------------------------
------------------------------------------------------
------------------------------------------------------
------------------------------------------------------
---------------------0--------------------------------
------------------------------------------------------
------------------------------------------------------

*** Life<FredkinCell> 43x54 ***

Generation = 0, Population = 17.
------------------------------------------------------
------------------------------------------------------
------------------------------------------------------
----00----0-------------------------------------------
--------------------------------------------0---------
------0-----------------------------------------------
------------------------------------------------------
------------------------------------------------------
------------------------------------------------------
------------------------------------------------------
------------------------------------------------------
------------------------------------------------------
--------------0-------------------0----------0--------
------------------------------------------------------
------------------------------------------------------
------------------------------------------------------
------------------------------------------------------
------------------------------------------------------
------------------------------------------------------
------------------------------------------------------
------------------------------------------------------
------------------------------------------------------
------------------------------------------------------
----0-------------------0-------0-------0-------------
------------------------------------------------------
------------------------------------------------------
------------------------------------------------------
------------------------------------------------------
------------------------------------------------------
------------------------------------------------------
------------------------------------------------------
------------------------------------------------------
-----------------------0----------------0-------------
----------------------------------------0-------------
--------------------------------0---------------------
------------------------------------------------------
------------------------------------------------------
------------------------------------------------------
------------------------------------------------------
------------------------------------------------------
---------------------0--------------------------------
------------------------------------------------------
------------------------------------------------------

*** Life<FredkinCell> 43x54 ***

Generation = 0, Population = 4.
------------------------------------------------------
-0----------------------------------------------------
------------------------------------------------------
-----0------------------------------------------------
------------------------------------------------------
------0-----------------------------------------------
------------------------------------------------------
------------------------------------------------------
------------------------------------------------------
------------------------------------------------------
------------------------------------------------------
------------------------------------------------------
------------------------------------------------------
------------------------------------------------------
------------------------------------------------------
------------------------------------------------------
------------------------------------------------------
------------------------------------------------------
------------------------------------------------------
------------------------------------------------------
------------------------------------------------------
------------------------------------------------------
------------------------------------------------------
------------------------0-----------------------------
------------------------------------------------------
------------------------------------------------------
------------------------------------------------------
------------------------------------------------------
------------------------------------------------------
------------------------------------------------------
------------------------------------------------------
------------------------------------------------------
------------------------------------------------------
------------------------------------------------------
------------------------------------------------------
------------------------------------------------------
------------------------------------------------------
------------------------------------------------------
------------------------------------------------------
------------------------------------------------------
------------------------------------------------------
------------------------------------------------------
------------------------------------------------------

*** Life<FredkinCell> 43x54 ***

Generation = 0, Population = 14.
------------------------------------------------------
------------------------------------------------------
------------------------------------------------------
----00------------------------------------------------
--------------------------------------------0---------
------0-----------------------------------------------
------------------------------------------------------
------------------------------------------------------
------------------------------------------------------
------------------------------------------------------
------------------------------------------------------
------------------------------------------------------
--------------0-------------------0----------0--------
------------------------------------------------------
------------------------------------------------------
------------------------------------------------------
------------------------------------------------------
------------------------------------------------------
------------------------------------------------------
------------------------------------------------------
------------------------------------------------------
------------------------------------------------------
------------------------------------------------------
----0-------------------0-------0--------0------------
------------------------------------------------------
------------------------------------------------------
------------------------------------------------------
------------------------------------------------------
------------------------------------------------------
------------------------------------------------------
------------------------------------------------------
------------------------------------------------------
-----------------------0------------------------------
------------0-----------------------------------------
------------------------------------------------------
------------------------------------------------------
------------------------------------------------------
------------------------------------------------------
------------------------------------------------------
------------------------------------------------------
---------------------0--------------------------------
------------------------------------------------------
------------------------------------------------------
