7

43 54
17
3 4
5 6
3 5
23 45
23 4
4 44
3 10
34 32
32 23
23 32
32 23
33 12
23 41
12 45
12 14
12 34
40 21
3 5

43 54
17
3 4
5 6
3 5
23 24
23 4
4 44
3 10
34 32
32 23
23 32
32 23
33 12
23 41
12 45
12 14
12 34
40 21
3 5

43 54
16
3 4
5 6
3 5
23 24
23 4
4 44
3 10
34 32
23 32
32 23
33 12
23 41
12 45
12 14
12 34
40 21
3 5

43 54
17
3 4
5 6
3 5
23 24
23 4
4 44
3 10
34 32
32 23
23 32
32 50
33 12
23 41
12 45
12 14
12 34
40 21
3 5

43 54
17
3 4
5 6
3 5
23 24
23 4
4 44
3 10
34 32
32 23
23 32
32 40
33 40
23 40
12 45
12 14
12 34
40 21
3 5

43 54
17
1 1
1 1
1 1
1 1
1 1
1 1
1 1
1 1
1 1
1 1
1 1
1 1
1 1
1 1
5 6
3 5
23 24
3 5

43 54
18
3 4
5 6
3 5
23 24
23 4
4 44
23 32
23 32
23 32
23 32
23 32
32 23
33 12
23 41
12 45
12 14
12 34
40 21
3 5
