*** Life<FredkinCell> 9x8 ***

Generation = 0, Population = 17.
--------
-0-0----
----0-00
0---0--0
-0----0-
----0--0
--0-0---
--0-----
---0-0--

Generation = 1, Population = 32.
-0-0----
0-----00
00--1-1-
---01001
--0--0-0
-00010--
-01-10-0
-01-00--
------0-

Generation = 2, Population = 41.
----0-00
10-000-1
-10-20-0
00-1211-
--100-01
0---210-
012021--
0------0
-00-0--0

Generation = 3, Population = 42.
00--101-
2-01--0-
021-3111
1----2-1
--211-12
1--032--
1---3--0
10-0-001
-11--001

Generation = 4, Population = 33.
-1--2--0
---200--
1--0422-
2--123--
-032--2-
20---3--
---041-1
--1-0-12
--2-0-1-

*** Life<FredkinCell> 10x6 ***

Generation = 0, Population = 5.
------
-0----
-0----
-0----
------
------
--0---
------
------
0-----

Generation = 1, Population = 16.
-0----
010---
0-0---
010---
-0----
--0---
-0-0--
--0---
0-----
-0----

Generation = 2, Population = 14.
-1----
-2-0--
---0--
-2-0--
-10---
-0----
0---0-
0-----
--0---
--0---

Generation = 3, Population = 34.
0200--
03-10-
--0-0-
03010-
021---
-1--0-
1--0-0
100-0-
0010--
-010--

Generation = 4, Population = 15.
-3----
-----0
-01--0
-4---0
------
02----
20----
21----
------
--2-0-

Generation = 5, Population = 27.
0-0--0
--0-01
0-200-
05--01
0----0
--0---
310---
--0---
001-0-
-0---0

Generation = 6, Population = 26.
--10-1
-3-1--
10--10
16----
1-1--1
--10-0
4-10--
-1-00-
11----
-1----

Generation = 7, Population = 33.
--2---
-402--
-12-21
2---0-
222-02
-22--1
-1-1-0
220-10
22100-
-22---

*** Life<FredkinCell> 9x7 ***

Generation = 0, Population = 14.
----000
----00-
-------
----00-
----0--
-------
---000-
--0---0
-0-----

Generation = 2, Population = 35.
--01-22
--01000
-----00
--01021
--01200
--0-010
--02020
0-----0
-0--00-

Generation = 4, Population = 28.
010--22
01--0-2
---0--2
010--2-
01--20-
----21-
1----42
0----1-
-0-1---

*** Life<FredkinCell> 5x6 ***

Generation = 0, Population = 16.
-0-00-
0-00-0
--00--
0---0-
0000-0

Generation = 1, Population = 11.
--0-1-
-0-10-
-0---0
1--0--
---10-

Generation = 2, Population = 16.
---020
0102--
-10---
--01-0
0-0-10

Generation = 3, Population = 18.
00---1
121--0
--10-0
1-1201
--112-

Generation = 4, Population = 11.
----22
-3--0-
--2-0-
--2-1-
00-2--

Generation = 5, Population = 15.
-0-0-3
1--2--
--3--0
1-3221
111---

Generation = 6, Population = 12.
---1--
---30-
-140-1
204---
----20

Generation = 7, Population = 16.
--02--
-3-41-
--5-0-
31--2-
111231

Generation = 8, Population = 11.
--1---
1----0
01-0-1
--4---
-2--42

*** Life<FredkinCell> 8x7 ***

Generation = 0, Population = 9.
-------
00-----
----0--
--0----
----0--
-------
----00-
-0--0--

Generation = 2, Population = 23.
----0--
2--0---
--1-0-0
-1--0--
--1--10
-00-0--
--010-1
-0112-0

Generation = 4, Population = 24.
-------
2-0-10-
1---200
11--2-0
0-----2
1---2--
01----3
123--02

*** Life<FredkinCell> 7x9 ***

Generation = 0, Population = 15.
--0--0---
----0--0-
-0-------
----0--00
-----00--
0-0------
---000---

Generation = 1, Population = 27.
-0-0--00-
-000--0-0
0-0-----0
-0-0---11
0-0--11-0
----0-0--
0--1-10--

Generation = 2, Population = 33.
010100-1-
--1-00101
--10--0--
0---00-22
-0---2-01
--0----00
-00-02-0-

Generation = 3, Population = 34.
1-1-1-02-
0----1212
00-10010-
--0-1-0--
-----3-12
-0100-01-
01--13-1-

Generation = 4, Population = 28.
2----0---
--100---3
-11211---
0--02-122
-0-00---3
------12-
1----4020

Generation = 5, Population = 32.
-111--0-0
0--1-1-1-
-22--2-0-
-0-1302--
-----3-14
00-00---0
-1--15131

Generation = 6, Population = 33.
-2--1--2-
-012-222-
--32--110
0102--322
0---0412-
1--1-012-
-20------

Generation = 7, Population = 32.
23-----30
0-2-0333-
02431-2--
--1---4--
--0015-3-
2---0-2-0
-31--513-

Generation = 8, Population = 23.
-4--10--1
--32--4--
-----2---
0--2--5--
00--26---
----1-3--
-421-624-

*** Life<FredkinCell> 6x7 ***

Generation = 0, Population = 10.
-----0-
-00---0
0--0---
-0-0---
0------
-----0-

Generation = 2, Population = 14.
0----0-
02----0
-10----
--02--0
--01---
-0---0-

Generation = 4, Population = 18.
-0-0-0-
0---0--
--0-00-
-0-----
0-0-11-
-001-01

*** Life<FredkinCell> 5x7 ***

Generation = 0, Population = 8.
0-----0
---0---
---0-00
---0---
------0

Generation = 2, Population = 21.
--01010
-0-2-1-
00-0022
-0-2-1-
---1010

Generation = 4, Population = 14.
---3-3-
---2---
220-02-
---2---
0-1103-

*** Life<FredkinCell> 10x7 ***

Generation = 0, Population = 17.
----0-0
0-0---0
---0---
-------
0-----0
----0--
0--0---
0-0--0-
0------
-----00

Generation = 1, Population = 31.
0-00--1
----001
0---0-0
0--0--0
-0--00-
-----00
10---0-
----0-0
100---0
0---011

Generation = 2, Population = 34.
--11--2
--0---2
10--10-
1-0-0-1
--0-1-0
0----11
210--10
--00-01
--10---
1-001--

Generation = 3, Population = 39.
-0-2003
0-1-0-3
-100-10
201--02
-01-20-
1-----2
----021
0-1----
1021-00
---121-

Generation = 4, Population = 30.
--131--
--2-1--
1--11-1
3-2--1-
0---3-0
--0--13
--001--
102-0--
--3-0-1
10-----

Generation = 5, Population = 38.
-0---0-
003--03
2102-1-
----0-2
10-0--1
101-02-
2-1---1
2-30-01
-04-1--
21--2-1
