9

6 6
5
2 1
2 2
0 2
2 5
2 3
4 1

8 6
6
2 0
6 4
6 2
2 3
5 5
4 2
3 2

8 5
15
4 2
7 3
3 4
3 2
6 0
0 3
5 1
2 1
7 1
1 4
5 3
2 4
3 2
6 4
3 2
6 2

9 7
16
1 6
0 3
5 0
8 5
5 0
1 3
8 1
1 6
0 4
1 0
7 0
8 3
7 6
0 1
2 4
8 2
7 1

7 10
20
4 0
5 1
5 4
3 1
2 8
4 2
5 9
2 7
2 8
0 9
5 4
0 1
5 3
2 7
2 1
3 8
4 8
5 8
0 4
3 6
5 1

10 8
7
3 3
5 0
1 3
0 7
0 2
9 0
0 3
3 2

10 8
16
2 4
4 2
2 0
3 1
3 5
2 0
7 7
7 5
8 1
6 5
3 3
4 1
9 5
2 1
7 2
9 4
8 2

7 10
8
6 1
5 6
6 6
0 7
0 1
0 8
5 2
6 8
5 1

6 7
19
2 5
1 6
2 6
2 6
3 5
0 2
0 2
1 3
4 0
1 5
0 0
1 1
5 1
5 6
2 5
5 2
0 6
5 6
3 1
8 2
