*** Life<FredkinCell> 18x11 ***

Generation = 0, Population = 26.
0-0----0---
--------0--
0--0--0----
---0-------
---------0-
-----------
-----------
-----------
-0-----0---
-0----0--0-
----00-----
-----------
--0---0--0-
-------00--
---------0-
-----------
--00-----0-
--0--------

Generation = 10, Population = 92.
033-20--122
1-23---1---
-22------34
04-----1-0-
-2-7--32---
-----1---1-
-2--00-3---
032----2-1-
5-2--25---0
----1--4---
---422-23--
0-2-1142-3-
20352-132-4
4--413-5-2-
03----0103-
03--1002---
3-44-22---0
-120----22-

*** Life<FredkinCell> 5x13 ***

Generation = 0, Population = 9.
0------------
------0-----0
00-----------
---------0---
0-0------0---

Generation = 9, Population = 25.
-34211--130--
---0-----2---
4--0-32--6---
0---01---20--
-0-0----3-21-

*** Life<FredkinCell> 14x3 ***

Generation = 0, Population = 8.
0-0
0--
--0
0--
---
---
0--
0--
---
---
---
---
0--
---

Generation = 4, Population = 13.
--1
2--
--0
1--
1-2
0--
--2
2--
1--
---
2--
0--
0--
---

Generation = 8, Population = 12.
3--
---
---
3--
1-2
4--
5-2
---
--1
1--
--2
2--
---
1--

Generation = 12, Population = 14.
4-2
3--
--2
---
1-2
4--
--3
---
2-3
---
7-2
4--
--1
---

*** Life<FredkinCell> 8x13 ***

Generation = 0, Population = 13.
-0-----------
------0-0--0-
--0----0---0-
---------0---
0-----0------
-------------
----------0--
--0----0-----

Generation = 7, Population = 52.
2-1-0-1-10120
-----0--112-0
2--2---3-243-
2001-1-61-1--
-2------202--
-032-0-53---0
3--0--10001--
-2-13-2---0-0

*** Life<FredkinCell> 3x16 ***

Generation = 0, Population = 12.
--0------000--00
0----0---------0
-----0------0--0

Generation = 3, Population = 22.
2-1012--2----03-
1-2---0--000010-
00-----1---2---3

Generation = 6, Population = 22.
-020-----12-21--
1-500-01-3---4-1
13-0-20-2-------

Generation = 9, Population = 25.
3---2---223-3--2
2--0-1---60----1
1601-3-321041-0-

Generation = 12, Population = 26.
-451--1153----43
-1631----71217-4
16-2-----2-4-4-4

Generation = 15, Population = 23.
--8--321----5--4
3-9--52-3--327--
-7051--5--1-27-5

*** Life<FredkinCell> 5x2 ***

Generation = 0, Population = 5.
--
00
-0
0-
-0

Generation = 1, Population = 6.
00
1-
01
-0
--

Generation = 2, Population = 4.
-1
-0
--
-1
-0

Generation = 3, Population = 8.
02
11
--
02
01

Generation = 4, Population = 0.
--
--
--
--
--

Generation = 5, Population = 0.
--
--
--
--
--

Generation = 6, Population = 0.
--
--
--
--
--

Generation = 7, Population = 0.
--
--
--
--
--

*** Life<FredkinCell> 2x2 ***

Generation = 0, Population = 2.
0-
-0

Generation = 1, Population = 0.
--
--

Generation = 2, Population = 0.
--
--

Generation = 3, Population = 0.
--
--

Generation = 4, Population = 0.
--
--

Generation = 5, Population = 0.
--
--

Generation = 6, Population = 0.
--
--

Generation = 7, Population = 0.
--
--

Generation = 8, Population = 0.
--
--

Generation = 9, Population = 0.
--
--

Generation = 10, Population = 0.
--
--

Generation = 11, Population = 0.
--
--

Generation = 12, Population = 0.
--
--

Generation = 13, Population = 0.
--
--

Generation = 14, Population = 0.
--
--

Generation = 15, Population = 0.
--
--

Generation = 16, Population = 0.
--
--

Generation = 17, Population = 0.
--
--

Generation = 18, Population = 0.
--
--

Generation = 19, Population = 0.
--
--

*** Life<FredkinCell> 6x11 ***

Generation = 0, Population = 5.
--0------0-
-----------
--0--------
-------0---
-----------
0----------
