12

9 13
11
8 9
0 9
0 12
1 11
4 2
7 7
8 2
2 1
0 2
6 11
2 12
8 3

6 12
5
3 1
0 7
4 3
5 9
3 2
12 4

12 11
13
4 9
9 6
8 9
10 5
1 3
9 2
7 6
9 10
11 0
7 0
11 2
2 0
6 5
10 1

11 11
13
4 7
3 3
6 7
7 3
6 1
1 8
4 4
9 9
7 10
7 1
3 9
8 1
9 9
1 3

8 15
2
7 4
0 6
3 1

5 12
10
0 3
1 10
1 9
3 3
2 2
0 10
3 2
0 6
1 3
1 11
11 3

7 6
4
0 0
1 4
3 2
2 5
15 3

15 13
16
14 12
4 12
2 3
1 6
4 10
0 1
8 1
8 9
5 4
4 10
6 3
9 10
10 2
4 10
6 0
13 7
1 3

15 14
5
13 4
4 1
9 11
11 5
1 0
8 3

11 8
14
5 6
6 2
7 7
2 1
5 6
10 7
8 5
6 1
10 1
7 7
2 7
7 0
8 4
8 5
10 4

9 11
7
5 10
6 1
0 4
1 2
6 5
6 8
2 0
14 2

11 10
4
0 7
7 1
9 5
2 4
6 2
